<svg xmlns="http://www.w3.org/2000/svg" width="12" height="7.41" viewBox="0 0 12 7.41">
  <path id="icon-arrow-ascending" d="M16.59,16,12,11.42,7.41,16,6,14.59l6-6,6,6Z" transform="translate(-6 -8.59)"/>
</svg>
