<svg xmlns="http://www.w3.org/2000/svg" width="17.59" height="13.41" viewBox="0 0 17.59 13.41">
  <path id="icon-checked" d="M9,16.17,4.83,12,3.41,13.41,9,19,21,7,19.59,5.59Z" transform="translate(-3.41 -5.59)"/>
</svg>
